[
    [
        {
            "time": "0",
            "y": 0
        },
        {
            "time": "1",
            "y": 0
        },
        {
            "time": "2",
            "y": 0
        },
        {
            "time": "3",
            "y": 0
        },
        {
            "time": "4",
            "y": 0
        },
        {
            "time": "5",
            "y": 0
        },
        {
            "time": "6",
            "y": 0
        },
        {
            "time": "7",
            "y": 0
        },
        {
            "time": "8",
            "y": 0
        },
        {
            "time": "9",
            "y": 0
        },
        {
            "time": "10",
            "y": 0
        },
        {
            "time": "11",
            "y": 0
        },
        {
            "time": "12",
            "y": 0
        },
        {
            "time": "13",
            "y": 0
        },
        {
            "time": "14",
            "y": 0
        },
        {
            "time": "15",
            "y": 0
        },
        {
            "time": "16",
            "y": 0
        },
        {
            "time": "17",
            "y": 0
        },
        {
            "time": "18",
            "y": 0
        },
        {
            "time": "19",
            "y": 0
        },
        {
            "time": "20",
            "y": 0
        },
        {
            "time": "21",
            "y": 0
        },
        {
            "time": "22",
            "y": 0
        },
        {
            "time": "23",
            "y": 0
        }
    ],
    [
        {
            "time": "0",
            "y": 1
        },
        {
            "time": "1",
            "y": 1
        },
        {
            "time": "2",
            "y": 0
        },
        {
            "time": "3",
            "y": 0
        },
        {
            "time": "4",
            "y": 0
        },
        {
            "time": "5",
            "y": 2
        },
        {
            "time": "6",
            "y": 0
        },
        {
            "time": "7",
            "y": 0
        },
        {
            "time": "8",
            "y": 0
        },
        {
            "time": "9",
            "y": 0
        },
        {
            "time": "10",
            "y": 0
        },
        {
            "time": "11",
            "y": 0
        },
        {
            "time": "12",
            "y": 0
        },
        {
            "time": "13",
            "y": 146
        },
        {
            "time": "14",
            "y": 0
        },
        {
            "time": "15",
            "y": 0
        },
        {
            "time": "16",
            "y": 0
        },
        {
            "time": "17",
            "y": 0
        },
        {
            "time": "18",
            "y": 0
        },
        {
            "time": "19",
            "y": 0
        },
        {
            "time": "20",
            "y": 0
        },
        {
            "time": "21",
            "y": 0
        },
        {
            "time": "22",
            "y": 0
        },
        {
            "time": "23",
            "y": 0
        }
    ],
    [
        {
            "time": "0",
            "y": 0
        },
        {
            "time": "1",
            "y": 0
        },
        {
            "time": "2",
            "y": 0
        },
        {
            "time": "3",
            "y": 0
        },
        {
            "time": "4",
            "y": 0
        },
        {
            "time": "5",
            "y": 0
        },
        {
            "time": "6",
            "y": 0
        },
        {
            "time": "7",
            "y": 0
        },
        {
            "time": "8",
            "y": 0
        },
        {
            "time": "9",
            "y": 0
        },
        {
            "time": "10",
            "y": 0
        },
        {
            "time": "11",
            "y": 0
        },
        {
            "time": "12",
            "y": 0
        },
        {
            "time": "13",
            "y": 0
        },
        {
            "time": "14",
            "y": 0
        },
        {
            "time": "15",
            "y": 0
        },
        {
            "time": "16",
            "y": 0
        },
        {
            "time": "17",
            "y": 0
        },
        {
            "time": "18",
            "y": 0
        },
        {
            "time": "19",
            "y": 0
        },
        {
            "time": "20",
            "y": 0
        },
        {
            "time": "21",
            "y": 0
        },
        {
            "time": "22",
            "y": 0
        },
        {
            "time": "23",
            "y": 0
        }
    ]
]